﻿{
	"target" : [{
		"host"	 : "http://yahoo.co.jp",
		"duration" : 1000,
		"threshold_up"	 : 2,
		"threshold_down" : 2,
		"threshold_resp_time" : 5000
	},{
		"host"	 : "http://google.co.jp",
		"duration" : 2000,
		"threshold_up"	 : 3,
		"threshold_down" : 4,
		"threshold_resp_time" : 1000
	}]
}
